<svg xmlns="http://www.w3.org/2000/svg" viewBox="0 0 40 40">
  <path d="M14.2 20.1a4.3 4.3 0 0 1-.1-6.6 1 1 0 1 0-1.2-1.4 6 6 0 0 0 .1 9.5.9.9 0 0 0 .6.2.9.9 0 0 0 .5-1.7z"/>
  <path d="M32.5 27.8L29 24.1a1 1 0 0 0-1.3 0 1 1 0 0 0 0 1.3l3.5 3.5-2 2-4.1-4.1 1-1a.9.9 0 0 0 0-1.3L24.5 23a9.9 9.9 0 1 0-1.3 1.3l1 1-.5.3a1.8 1.8 0 0 0 0 2.5l4.2 4.2a1.8 1.8 0 0 0 2.5 0l2-2a1.8 1.8 0 0 0 0-2.6zm-15.7-3a8 8 0 1 1 8-8 8 8 0 0 1-8 8z"/>
</svg>