{
  "cviceni": {
    "version": {
      "global": "<%= version %>",
      "content": 2
    },
    "language": "cs",
    "katalog": [
      "public",
      "test"
    ],
    "id": 22,
    "slug": "co-se-ucime-krome-pocitani",
    "nazev": "Co se učíme kromě počítání?",
    "autor": ["Pavla Sýkorová"],
    "klicovaSlova": [
      "druhá světová válka",
      "vzdělání",
      "propaganda",
      "škola",
      "dobové perspektivy",
      "vidíme pod povrch pramene"
    ],
    "anotace": {
      "ucitel": "Cvičení učí žáky pomocí netradičního pramene, jakým je učebnice matematiky, rozpoznávat nacistickou propagandu. Žáci si vyzkouší práci s matematickou úlohou, kterou počítaly děti na měšťanských školách v průběhu druhé světové války. Cvičení může dokreslovat školství a běžný život v protektorátu Čechy a Morava.",
      "verejna": "Za protektorátu nacistická propaganda číhala všude. Třeba i v učebnici matematiky. Odhalíte, jakými způsoby se tehdejší žáky snažilo Ministerstvo školství a národní osvěty zmanipulovat?"
    },
    "trvani": 20,
    "funkce": ["lupa", "cteni", "text"],
    "pdf": {
      "doporucenyPostup": "co-se-ucime-krome-pocitani.pdf"
    },
    "uvodniObrazek": "co-se-ucime-krome-pocitani/pic-00-1024h.jpg"
  },
  "slajd": [
    {
      "zadani": {
        "hlavni": "Projděte si text slovní úlohy č. 375, kterou žáci počítali ve škole během 2. světové války.",
        "rozsirujici": ""
      },
      "napoveda": {
        "aktivity": ["lupa", "cteni"],
        "text": "Kliknutím levého tlačítka do obrazu a jeho podržením lupa přiblíží část obrazu ve výřezu."
      },
      "textovyEditor": {
        "galerie": [
          {
            "soubor": "co-se-ucime-krome-pocitani/pic-00-1024h.jpg"
          }
        ],
        "texty": [
          {
            "id": 0,
            "text": "text-00",
            "funkce": "cteni"
          }
        ]
      },
      "popisky": [
        "Početní úloha pro žáky I. třídy SŠ (Odpovídá dnešní 5. třídě ZŠ). Zdroj: Aritmetika pro I. třídu středních škol, Praha 1943"
      ]
    },
    {
      "class": "half-slide-previous",
      "zadani": {
        "hlavni": "Označte v textu pasáže, které nejsou potřeba pro vypočítání slovní úlohy.",
        "rozsirujici": ""
      },
      "napoveda": {
        "aktivity": ["text-editor"],
        "text": "Levým tlačítkem myši zabarvíte zvolené slovo nebo slovní spojení. Otevře se vám nabídka, v níž zvolíte označovanou kategorii. Křížkem lze označení smazat, kliknutím levým tlačítkem na již označené slovo lze přidat textový komentář."
      },
      "textovyEditor": {
        "galerie": [
          {
            "soubor": "co-se-ucime-krome-pocitani/pic-00-1024h.jpg"
          }
        ],
        "texty": [
          {
            "id": 1,
            "text": "text-00",
            "funkce": "zvyraznovani",
            "menu": [
              {
                "title": "Nepotřebná pasáž",
                "commandName": "nepotrebne",
                "classes": "text-orange",
                "command": "toggle-class",
                "commandOptions": {
                  "toggleClass": "node-selected node-text-orange",
                  "closeBtn": true,
                  "comments": false,
                  "commentsClass": "text-orange"
                }
              }
            ]
          }
        ]
      },
      "popisky": ["Početní úloha pro žáky I. třídy SŠ (Odpovídá dnešní 5. třídě ZŠ). Zdroj: Aritmetika pro I. třídu středních škol, Praha 1943"]
    },
    {
      "class": "half-slide-active column",
      "zadani": {
        "hlavni": "Co se snaží autor slovní úlohy žákům sdělit?",
        "rozsirujici": "Pomocí zvětšování a zmenšování odstupňujte záměry autora učebnice."
      },
      "napoveda": {
        "aktivity": ["word-cloud"],
        "text": "Klikáním na znaménka -/+ zmenšujte či zdůrazňujte důležitost."
      },
      "klicovaSlova": {
        "klicovaSlova": [
          {
            "id": "klicova-slova-1",
            "funkce": "wordcloud",
            "tagy": [
              {
                "text": "Ospravedlnit jednání nacistického Německa během 2. sv. války."
              },
              {
                "text": "Obvinit vítězné mocnosti 1. světové války z uzavření nespravedlivé mírové smlouvy s Německem."
              },
              {
                "text": "Zdůraznit prohloubení problémů se zásobováním během hospodářské krize."
              },
              {
                "text": "Procvičit se žáky násobení a dělení velkých čísel a počítání procent."
              },
              {
                "text": "Ukázat aroganci vítězných mocností 1. světové války, které si na Německu vynutily podepsání mírové smlouvy za pomoci námořní blokády."
              },
              {
                "text": "Sdělit, že německé děti mohly mít více mléka k snídani."
              },
              {
                "text": "Vzbudit soucit českých dětí s německými dětmi."
              }
            ]
          }
        ]
      }
    },
    {
      "class": "half-slide-previous",
      "zadani": {
        "hlavni": "Po válce úloha z učebnice zmizela. Následně stránka vypadala takto:",
        "rozsirujici": ""
      },
      "napoveda": {
        "aktivity": ["lupa"],
        "text": "Kliknutím levého tlačítka do obrazu a jeho podržením lupa přiblíží část obrazu ve výřezu."
      },
      "prameny": [
        "co-se-ucime-krome-pocitani/pic-00-1024h.jpg",
        "co-se-ucime-krome-pocitani/pic-01-1024h.jpg"
      ],
      "popisky": [
        "Zdroj: Aritmetika pro I. třídu středních škol, Praha 1943",
        "Zdroj: Aritmetika pro I. třídu středních škol, dotisk I. vydání pro školní rok 1946/47"
      ]
    },
    {
      "class": "half-slide-active column",
      "zadani": {
        "hlavni": "Co se učíme kromě počítání?",
        "rozsirujici": "Proč se tato úloha vyskytla v českých učebnicích v průběhu 2. světové války?"
      },
      "napoveda": {
        "aktivity": ["text"],
        "text": "Do boxu pro text zapisujete odpověď na otázku, nebo jiný komentář (dle zadání)."
      },
      "uzivatelskyText": {
        "otazky": [
          {
            "id": "text-4",
            "zadani": "",
            "instrukce": "Myslím si, že…",
            "minDelka": 0,
            "maxDelka": 400
          }
        ]
      }
    }
  ]
}
